<?xml version="1.0" encoding="UTF-8"?>
<symbol version="7" name="mc_top">
    <symboltype>BLOCK</symboltype>
    <timestamp>2011-9-6T14:4:41</timestamp>
    <attr value="mc_top" name="VeriModel" />
    <pin polarity="Input" x="0" y="96" name="W_CLK_36M" />
    <pin polarity="Input" x="0" y="224" name="I_RESET" />
    <pin polarity="Input" x="0" y="32" name="W_DCM_LOCKED" />
    <pin polarity="Input" x="0" y="352" name="W_CPU_MREQn" />
    <pin polarity="Input" x="0" y="416" name="W_CPU_RDn" />
    <pin polarity="Input" x="0" y="480" name="W_CPU_WRn" />
    <pin polarity="Input" x="0" y="544" name="W_CPU_RFSHn" />
    <pin polarity="Input" x="0" y="160" name="I_PSW(8:0)" />
    <pin polarity="Input" x="0" y="608" name="W_A(15:0)" />
    <pin polarity="Input" x="0" y="672" name="W_BDI(7:0)" />
    <pin polarity="Output" x="480" y="96" name="CLK_RESET" />
    <pin polarity="Output" x="480" y="-416" name="O_SOUND_OUT_L" />
    <pin polarity="Output" x="480" y="-352" name="O_SOUND_OUT_R" />
    <pin polarity="Output" x="480" y="-288" name="O_VGA_H_SYNCn" />
    <pin polarity="Output" x="0" y="288" name="W_CPU_RESETn" />
    <pin polarity="Output" x="480" y="288" name="W_CPU_NMIn" />
    <pin polarity="Output" x="480" y="352" name="W_CPU_WAITn" />
    <pin polarity="Output" x="480" y="-160" name="O_VGA_R(3:0)" />
    <pin polarity="Output" x="480" y="-96" name="O_VGA_G(3:0)" />
    <pin polarity="Output" x="480" y="-32" name="O_VGA_B(3:0)" />
    <pin polarity="Output" x="480" y="416" name="W_BDO(7:0)" />
    <pin polarity="Output" x="480" y="736" name="O_VGA_V_SYNCn" />
    <pin polarity="Output" x="480" y="800" name="W_CPU_CLK" />
    <graph>
        <attrtext style="alignment:BCENTER;fontsize:56;fontname:Arial" attrname="SymbolName" x="240" y="-456" type="symbol" />
        <attrtext style="fontsize:24;fontname:Arial" attrname="PinName" x="72" y="96" type="pin W_CLK_36M" />
        <attrtext style="fontsize:24;fontname:Arial" attrname="PinName" x="72" y="224" type="pin I_RESET" />
        <attrtext style="fontsize:24;fontname:Arial" attrname="PinName" x="72" y="32" type="pin W_DCM_LOCKED" />
        <attrtext style="fontsize:24;fontname:Arial" attrname="PinName" x="72" y="352" type="pin W_CPU_MREQn" />
        <attrtext style="fontsize:24;fontname:Arial" attrname="PinName" x="72" y="416" type="pin W_CPU_RDn" />
        <attrtext style="fontsize:24;fontname:Arial" attrname="PinName" x="72" y="480" type="pin W_CPU_WRn" />
        <attrtext style="fontsize:24;fontname:Arial" attrname="PinName" x="72" y="544" type="pin W_CPU_RFSHn" />
        <attrtext style="fontsize:24;fontname:Arial" attrname="PinName" x="72" y="160" type="pin I_PSW(8:0)" />
        <attrtext style="fontsize:24;fontname:Arial" attrname="PinName" x="72" y="608" type="pin W_A(15:0)" />
        <attrtext style="fontsize:24;fontname:Arial" attrname="PinName" x="72" y="672" type="pin W_BDI(7:0)" />
        <attrtext style="alignment:RIGHT;fontsize:24;fontname:Arial" attrname="PinName" x="408" y="96" type="pin CLK_RESET" />
        <attrtext style="alignment:RIGHT;fontsize:24;fontname:Arial" attrname="PinName" x="408" y="-416" type="pin O_SOUND_OUT_L" />
        <attrtext style="alignment:RIGHT;fontsize:24;fontname:Arial" attrname="PinName" x="408" y="-352" type="pin O_SOUND_OUT_R" />
        <attrtext style="alignment:RIGHT;fontsize:24;fontname:Arial" attrname="PinName" x="408" y="-288" type="pin O_VGA_H_SYNCn" />
        <attrtext style="fontsize:24;fontname:Arial" attrname="PinName" x="72" y="288" type="pin W_CPU_RESETn" />
        <attrtext style="alignment:RIGHT;fontsize:24;fontname:Arial" attrname="PinName" x="408" y="288" type="pin W_CPU_NMIn" />
        <attrtext style="alignment:RIGHT;fontsize:24;fontname:Arial" attrname="PinName" x="408" y="352" type="pin W_CPU_WAITn" />
        <attrtext style="alignment:RIGHT;fontsize:24;fontname:Arial" attrname="PinName" x="408" y="-160" type="pin O_VGA_R(3:0)" />
        <attrtext style="alignment:RIGHT;fontsize:24;fontname:Arial" attrname="PinName" x="408" y="-96" type="pin O_VGA_G(3:0)" />
        <attrtext style="alignment:RIGHT;fontsize:24;fontname:Arial" attrname="PinName" x="408" y="-32" type="pin O_VGA_B(3:0)" />
        <attrtext style="alignment:RIGHT;fontsize:24;fontname:Arial" attrname="PinName" x="408" y="416" type="pin W_BDO(7:0)" />
        <attrtext style="alignment:RIGHT;fontsize:24;fontname:Arial" attrname="PinName" x="408" y="736" type="pin O_VGA_V_SYNCn" />
        <line x2="480" y1="736" y2="736" x1="416" />
        <attrtext style="alignment:RIGHT;fontsize:24;fontname:Arial" attrname="PinName" x="408" y="800" type="pin W_CPU_CLK" />
        <line x2="480" y1="800" y2="800" x1="416" />
        <line x2="0" y1="288" y2="288" x1="64" />
        <line x2="0" y1="352" y2="352" x1="64" />
        <line x2="0" y1="416" y2="416" x1="64" />
        <line x2="0" y1="480" y2="480" x1="64" />
        <line x2="0" y1="544" y2="544" x1="64" />
        <rect width="64" x="0" y="596" height="24" />
        <line x2="0" y1="608" y2="608" x1="64" />
        <rect width="64" x="0" y="660" height="24" />
        <line x2="0" y1="672" y2="672" x1="64" />
        <line x2="480" y1="288" y2="288" x1="416" />
        <line x2="480" y1="352" y2="352" x1="416" />
        <rect width="64" x="416" y="404" height="24" />
        <line x2="480" y1="416" y2="416" x1="416" />
        <line x2="0" y1="224" y2="224" x1="64" />
        <line x2="0" y1="96" y2="96" x1="64" />
        <rect width="64" x="0" y="148" height="24" />
        <line x2="0" y1="160" y2="160" x1="64" />
        <line x2="480" y1="96" y2="96" x1="416" />
        <line x2="0" y1="32" y2="32" x1="64" />
        <line x2="480" y1="-416" y2="-416" x1="416" />
        <line x2="480" y1="-352" y2="-352" x1="416" />
        <line x2="480" y1="-288" y2="-288" x1="416" />
        <rect width="64" x="416" y="-172" height="24" />
        <line x2="480" y1="-160" y2="-160" x1="416" />
        <rect width="64" x="416" y="-108" height="24" />
        <line x2="480" y1="-96" y2="-96" x1="416" />
        <rect width="64" x="416" y="-44" height="24" />
        <line x2="480" y1="-32" y2="-32" x1="416" />
        <rect width="352" x="64" y="-448" height="1280" />
    </graph>
</symbol>
